{
  "project_info": {
    "project_number": "994241374475",
    "firebase_url": "https://the-eleven.firebaseio.com",
    "project_id": "the-eleven",
    "storage_bucket": "the-eleven.appspot.com"
  },
  "client": [
    {
      "client_info": {
        "mobilesdk_app_id": "1:994241374475:android:892a075cb3957842",
        "android_client_info": {
          "package_name": "com.pureweblopment.theeleven"
        }
      },
      "oauth_client": [
        {
          "client_id": "994241374475-dbf22dob3quoa0egv2ev7bgb8cs0s1pt.apps.googleusercontent.com",
          "client_type": 3
        }
      ],
      "api_key": [
        {
          "current_key": "AIzaSyA7DRmmqddViUYKuR0d9W5x6JX4AOSMcIE"
        }
      ],
      "services": {
        "analytics_service": {
          "status": 1
        },
        "appinvite_service": {
          "status": 1,
          "other_platform_oauth_client": []
        },
        "ads_service": {
          "status": 2
        }
      }
    }
  ],
  "configuration_version": "1"
}